…
Let’s make a plot and see how cool

``` r
plot_df = 
  tibble(
    x = rnorm(1000, mean = 1, sd = 0.5),
    y = 1 + 2 * x + rnorm(1000)
  )

plot_df
```

    ## # A tibble: 1,000 × 2
    ##        x      y
    ##    <dbl>  <dbl>
    ##  1 0.906 2.86  
    ##  2 1.47  3.55  
    ##  3 0.918 2.62  
    ##  4 0.869 1.41  
    ##  5 1.34  2.48  
    ##  6 1.53  3.33  
    ##  7 0.364 0.0764
    ##  8 1.75  5.11  
    ##  9 1.46  3.20  
    ## 10 1.78  5.44  
    ## # ℹ 990 more rows
…
